{
    "name": "Тиньков",
    "settings": [
        {
            "variable": "api_url",
            "name": "Адрес сервера"
        },
        {
            "variable": "login",
            "name": "Идентификатор"
        },
        {
            "variable": "password",
            "name": "Пароль"
        },
        {
            "variable": "enabledTaxation",
            "name": "Передавать данные для чека",
            "options": [
                {
                    "name": "Нет",
                    "value": false
                },
                {
                    "name": "Да",
                    "value": true
                }
            ]
        },
        {
            "variable": "taxations",
            "name": "Система налогообложения",
            "options": [
                {
                    "name": "Общая СН",
                    "value": "osn"
                },
                {
                    "name": "Упрощенная СН (доходы)",
                    "value": "usn_income"
                },
                {
                    "name": "Упрощенная СН (доходы минус расходы)",
                    "value": "usn_income_outcome"
                },
                {
                    "name": "Единый налог на вмененный доход",
                    "value": "envd"
                },
                {
                    "name": "Единый сельскохозяйственный налог",
                    "value": "esn"
                },
                {
                    "name": "Патентная СН",
                    "value": "patent"
                }
            ]
        },
        {
            "variable": "nds",
            "name": "Ставка НДС",
            "options": [
                {
                    "name": "Без НДС",
                    "value": "none"
                },
                {
                    "name": "НДС 0%",
                    "value": "vat0"
                },
                {
                    "name": "НДС 10%",
                    "value": "vat10"
                },
                {
                    "name": "НДС 18%",
                    "value": "vat18"
                }
            ]
        },
        {
            "variable": "language",
            "name": "Язык шлюза",
            "options": [
                {
                    "name": "Русский",
                    "value": "ru"
                },
                {
                    "name": "Английский",
                    "value": "en"
                }
            ]
        }
    ]
}